%!PS-Adobe-2.0 EPSF-2.0
%%BoundingBox:  0 0 567 385
%%Title: Result//BDT_comp.eps: 
%%Creator: ROOT Version 6.04/18
%%CreationDate: Fri Mar 29 21:59:26 2019
%%DocumentNeededResources: ProcSet (FontSetInit)
%%EndComments
%%BeginProlog
80 dict begin
/s {stroke} def /l {lineto} def /m {moveto} def /t {translate} def
/r {rotate} def /rl {roll}  def /R {repeat} def
/d {rlineto} def /rm {rmoveto} def /gr {grestore} def /f {eofill} def
/c {setrgbcolor} def /black {0 setgray} def /sd {setdash} def
/cl {closepath} def /sf {scalefont setfont} def /lw {setlinewidth} def
/box {m dup 0 exch d exch 0 d 0 exch neg d cl} def
/NC{systemdict begin initclip end}def/C{NC box clip newpath}def
/bl {box s} def /bf {gsave box gsave f grestore 1 lw [] 0 sd s grestore} def /Y { 0 exch d} def /X { 0 d} def 
/K {{pop pop 0 moveto} exch kshow} bind def
/ita {/ang 15 def gsave [1 0 ang dup sin exch cos div 1 0 0] concat} def 
/mp {newpath /y exch def /x exch def} def
/side {[w .77 mul w .23 mul] .385 w mul sd w 0 l currentpoint t -144 r} def
/mr {mp x y w2 0 360 arc} def /m24 {mr s} def /m20 {mr f} def
/mb {mp x y w2 add m w2 neg 0 d 0 w neg d w 0 d 0 w d cl} def
/mt {mp x y w2 add m w2 neg w neg d w 0 d cl} def
/m21 {mb f} def /m25 {mb s} def /m22 {mt f} def /m26{mt s} def
/m23 {mp x y w2 sub m w2 w d w neg 0 d cl f} def
/m27 {mp x y w2 add m w3 neg w2 neg d w3 w2 neg d w3 w2 d cl s} def
/m28 {mp x w2 sub y w2 sub w3 add m w3 0 d  0 w3 neg d w3 0 d 0 w3 d w3 0 d  0 w3 d w3 neg 0 d 0 w3 d w3 neg 0 d 0 w3 neg d w3 neg 0 d cl s } def
/m29 {mp gsave x w2 sub y w2 add w3 sub m currentpoint t 4 {side} repeat cl fill gr} def
/m30 {mp gsave x w2 sub y w2 add w3 sub m currentpoint t 4 {side} repeat cl s gr} def
/m31 {mp x y w2 sub m 0 w d x w2 sub y m w 0 d x w2 sub y w2 add m w w neg d x w2 sub y w2 sub m w w d s} def
/m32 {mp x y w2 sub m w2 w d w neg 0 d cl s} def
/m33 {mp x y w2 add m w3 neg w2 neg d w3 w2 neg d w3 w2 d cl f} def
/m34 {mp x w2 sub y w2 sub w3 add m w3 0 d  0 w3 neg d w3 0 d 0 w3 d w3 0 d  0 w3 d w3 neg 0 d 0 w3 d w3 neg 0 d 0 w3 neg d w3 neg 0 d cl f } def
/m2 {mp x y w2 sub m 0 w d x w2 sub y m w 0 d s} def
/m5 {mp x w2 sub y w2 sub m w w d x w2 sub y w2 add m w w neg d s} def
%%IncludeResource: ProcSet (FontSetInit)
%%IncludeResource: font Times-Roman
%%IncludeResource: font Times-Italic
%%IncludeResource: font Times-Bold
%%IncludeResource: font Times-BoldItalic
%%IncludeResource: font Helvetica
%%IncludeResource: font Helvetica-Oblique
%%IncludeResource: font Helvetica-Bold
%%IncludeResource: font Helvetica-BoldOblique
%%IncludeResource: font Courier
%%IncludeResource: font Courier-Oblique
%%IncludeResource: font Courier-Bold
%%IncludeResource: font Courier-BoldOblique
%%IncludeResource: font Symbol
%%IncludeResource: font ZapfDingbats
/reEncode {exch findfont dup length dict begin {1 index /FID eq  {pop pop} {def} ifelse } forall /Encoding exch def currentdict end dup /FontName get exch definefont pop } def [/Times-Bold /Times-Italic /Times-BoldItalic /Helvetica /Helvetica-Oblique
 /Helvetica-Bold /Helvetica-BoldOblique /Courier /Courier-Oblique /Courier-Bold /Courier-BoldOblique /Times-Roman /AvantGarde-Book /AvantGarde-BookOblique /AvantGarde-Demi /AvantGarde-DemiOblique /Bookman-Demi /Bookman-DemiItalic /Bookman-Light
 /Bookman-LightItalic /Helvetica-Narrow /Helvetica-Narrow-Bold /Helvetica-Narrow-BoldOblique /Helvetica-Narrow-Oblique /NewCenturySchlbk-Roman /NewCenturySchlbk-Bold /NewCenturySchlbk-BoldItalic /NewCenturySchlbk-Italic /Palatino-Bold
 /Palatino-BoldItalic /Palatino-Italic /Palatino-Roman ] {ISOLatin1Encoding reEncode } forall
%%EndProlog
%%BeginSetup
%%EndSetup
newpath  gsave  .25 .25 scale  gsave  0 0 t black[  ] 0 sd 3 lw 1 1 1 c 2268 1540 0 0 bf black 1 1 1 c 1791 1217 363 246 bf black 1791 1217 363 246 bl 1 1 1 c 1791 1217 363 246 bf black 1791 1217 363 246 bl 363 246 m 1791 X s
 gsave  2268 1540 0 0 C 1819.37 45.4843 t 0 r /Helvetica findfont 71.4753 sf 0 0 m (BDT score) show NC gr  591 283 m -37 Y s 666 265 m -19 Y s 741 265 m -19 Y s 816 265 m -19 Y s 891 283 m -37 Y s 966 265 m -19 Y s 1041 265 m -19 Y s 1116 265 m -19 Y
 s 1191 283 m -37 Y s 1266 265 m -19 Y s 1340 265 m -19 Y s 1415 265 m -19 Y s 1490 283 m -37 Y s 1565 265 m -19 Y s 1640 265 m -19 Y s 1715 265 m -19 Y s 1790 283 m -37 Y s 1865 265 m -19 Y s 1940 265 m -19 Y s 2015 265 m -19 Y s 2089 283 m -37 Y s
 591 283 m -37 Y s 516 265 m -19 Y s 442 265 m -19 Y s 367 265 m -19 Y s 2089 283 m -37 Y s
 gsave  2268 1540 0 0 C 558.807 178.688 t 0 r /Helvetica findfont 71.4753 sf 0 0 m (0.6) show NC gr 
 gsave  2268 1540 0 0 C 523.069 178.688 t 0 r /Symbol findfont 71.4753 sf 0 0 m (-) show NC gr 
 gsave  2268 1540 0 0 C 857.704 178.688 t 0 r /Helvetica findfont 71.4753 sf 0 0 m (0.4) show NC gr 
 gsave  2268 1540 0 0 C 821.966 178.688 t 0 r /Symbol findfont 71.4753 sf 0 0 m (-) show NC gr 
 gsave  2268 1540 0 0 C 1156.6 178.688 t 0 r /Helvetica findfont 71.4753 sf 0 0 m (0.2) show NC gr 
 gsave  2268 1540 0 0 C 1120.86 178.688 t 0 r /Symbol findfont 71.4753 sf 0 0 m (-) show NC gr 
 gsave  2268 1540 0 0 C 1468.49 178.688 t 0 r /Helvetica findfont 71.4753 sf 0 0 m (0) show NC gr 
 gsave  2268 1540 0 0 C 1738.15 178.688 t 0 r /Helvetica findfont 71.4753 sf 0 0 m (0.2) show NC gr 
 gsave  2268 1540 0 0 C 2040.3 178.688 t 0 r /Helvetica findfont 71.4753 sf 0 0 m (0.4) show NC gr  363 1463 m 1791 X s 591 1426 m 37 Y s 666 1445 m 18 Y s 741 1445 m 18 Y s 816 1445 m 18 Y s 891 1426 m 37 Y s 966 1445 m 18 Y s 1041 1445 m 18 Y s
 1116 1445 m 18 Y s 1191 1426 m 37 Y s 1266 1445 m 18 Y s 1340 1445 m 18 Y s 1415 1445 m 18 Y s 1490 1426 m 37 Y s 1565 1445 m 18 Y s 1640 1445 m 18 Y s 1715 1445 m 18 Y s 1790 1426 m 37 Y s 1865 1445 m 18 Y s 1940 1445 m 18 Y s 2015 1445 m 18 Y s
 2089 1426 m 37 Y s 591 1426 m 37 Y s 516 1445 m 18 Y s 442 1445 m 18 Y s 367 1445 m 18 Y s 2089 1426 m 37 Y s 363 246 m 1217 Y s 417 246 m -54 X s 390 294 m -27 X s 390 342 m -27 X s 390 389 m -27 X s 417 437 m -54 X s 390 485 m -27 X s 390 532 m
 -27 X s 390 580 m -27 X s 417 628 m -54 X s 390 675 m -27 X s 390 723 m -27 X s 390 771 m -27 X s 417 818 m -54 X s 390 866 m -27 X s 390 914 m -27 X s 390 961 m -27 X s 417 1009 m -54 X s 390 1057 m -27 X s 390 1104 m -27 X s 390 1152 m -27 X s 417
 1200 m -54 X s 390 1247 m -27 X s 390 1295 m -27 X s 390 1343 m -27 X s 417 1390 m -54 X s 417 1390 m -54 X s 390 1438 m -27 X s
 gsave  2268 1540 0 0 C 311.892 220.924 t 0 r /Helvetica findfont 71.4753 sf 0 0 m (0) show NC gr 
 gsave  2268 1540 0 0 C 214.426 412.607 t 0 r /Helvetica findfont 71.4753 sf 0 0 m (0.02) show NC gr 
 gsave  2268 1540 0 0 C 211.177 604.291 t 0 r /Helvetica findfont 71.4753 sf 0 0 m (0.04) show NC gr 
 gsave  2268 1540 0 0 C 214.426 792.726 t 0 r /Helvetica findfont 71.4753 sf 0 0 m (0.06) show NC gr 
 gsave  2268 1540 0 0 C 214.426 984.41 t 0 r /Helvetica findfont 71.4753 sf 0 0 m (0.08) show NC gr 
 gsave  2268 1540 0 0 C 266.408 1176.09 t 0 r /Helvetica findfont 71.4753 sf 0 0 m (0.1) show NC gr 
 gsave  2268 1540 0 0 C 214.426 1364.53 t 0 r /Helvetica findfont 71.4753 sf 0 0 m (0.12) show NC gr  2154 246 m 1217 Y s 2101 246 m 53 X s 2127 294 m 27 X s 2127 342 m 27 X s 2127 389 m 27 X s 2101 437 m 53 X s 2127 485 m 27 X s 2127 532 m 27 X s
 2127 580 m 27 X s 2101 628 m 53 X s 2127 675 m 27 X s 2127 723 m 27 X s 2127 771 m 27 X s 2101 818 m 53 X s 2127 866 m 27 X s 2127 914 m 27 X s 2127 961 m 27 X s 2101 1009 m 53 X s 2127 1057 m 27 X s 2127 1104 m 27 X s 2127 1152 m 27 X s 2101 1200 m
 53 X s 2127 1247 m 27 X s 2127 1295 m 27 X s 2127 1343 m 27 X s 2101 1390 m 53 X s 2101 1390 m 53 X s 2127 1438 m 27 X s 6 lw 1 0.8 0.2 c black 3 lw 1 0.8 0.2 c 363 246 m 45 X 1 Y 44 X 2 Y 45 X 15 Y 45 X 45 Y 45 X 72 Y 45 X 54 Y 44 X 35 Y 45 X 41 Y
 45 X 51 Y 45 X 48 Y 44 X 20 Y 45 X 18 Y 45 X 29 Y 45 X 45 Y 45 X 52 Y 44 X 25 Y 45 X 15 Y 45 X 23 Y 45 X -9 Y 45 X -48 Y 44 X -60 Y 45 X -71 Y 45 X -48 Y 45 X -38 Y 45 X -32 Y 44 X -36 Y 45 X -30 Y 45 X -38 Y 45 X -38 Y 44 X -38 Y 45 X -32 Y 45 X
 -25 Y 45 X -18 Y 45 X -12 Y 44 X -7 Y 45 X -5 Y 45 X -3 Y 45 X -2 Y 89 X -1 Y f 6 lw black 1 0.8 0.2 c black 363 246 m 45 X 1 Y 44 X 2 Y 45 X 15 Y 45 X 45 Y 45 X 72 Y 45 X 54 Y 44 X 35 Y 45 X 41 Y 45 X 51 Y 45 X 48 Y 44 X 20 Y 45 X 18 Y 45 X 29 Y 45
 X 45 Y 45 X 52 Y 44 X 25 Y 45 X 15 Y 45 X 23 Y 45 X -9 Y 45 X -48 Y 44 X -60 Y 45 X -71 Y 45 X -48 Y 45 X -38 Y 45 X -32 Y 44 X -36 Y 45 X -30 Y 45 X -38 Y 45 X -38 Y 44 X -38 Y 45 X -32 Y 45 X -25 Y 45 X -18 Y 45 X -12 Y 44 X -7 Y 45 X -5 Y 45 X -3
 Y 45 X -2 Y 89 X -1 Y s 0.999 0.999 0.999 c black 3 lw 0.999 0.999 0.999 c 363 246 m 45 X 1 Y 44 X 2 Y 45 X 12 Y 45 X 40 Y 45 X 65 Y 45 X 45 Y 44 X 26 Y 45 X 26 Y 45 X 38 Y 45 X 36 Y 44 X 6 Y 45 X 2 Y 45 X 15 Y 45 X 23 Y 45 X 34 Y 44 X 17 Y 45 X 10
 Y 45 X 17 Y 45 X -5 Y 45 X -29 Y 44 X -42 Y 45 X -49 Y 45 X -30 Y 45 X -23 Y 45 X -25 Y 44 X -24 Y 45 X -20 Y 45 X -28 Y 45 X -30 Y 44 X -29 Y 45 X -26 Y 45 X -19 Y 45 X -14 Y 45 X -9 Y 44 X -5 Y 45 X -4 Y 45 X -2 Y 45 X -1 Y 89 X -1 Y f 6 lw black
 0.999 0.999 0.999 c black 363 246 m 45 X 1 Y 44 X 2 Y 45 X 12 Y 45 X 40 Y 45 X 65 Y 45 X 45 Y 44 X 26 Y 45 X 26 Y 45 X 38 Y 45 X 36 Y 44 X 6 Y 45 X 2 Y 45 X 15 Y 45 X 23 Y 45 X 34 Y 44 X 17 Y 45 X 10 Y 45 X 17 Y 45 X -5 Y 45 X -29 Y 44 X -42 Y 45 X
 -49 Y 45 X -30 Y 45 X -23 Y 45 X -25 Y 44 X -24 Y 45 X -20 Y 45 X -28 Y 45 X -30 Y 44 X -29 Y 45 X -26 Y 45 X -19 Y 45 X -14 Y 45 X -9 Y 44 X -5 Y 45 X -4 Y 45 X -2 Y 45 X -1 Y 89 X -1 Y s 1 1 1 c black 363 246 m 45 X 1 Y 44 X 2 Y 45 X 12 Y 45 X 40
 Y 45 X 65 Y 45 X 45 Y 44 X 26 Y 45 X 26 Y 45 X 38 Y 45 X 36 Y 44 X 6 Y 45 X 2 Y 45 X 15 Y 45 X 23 Y 45 X 34 Y 44 X 17 Y 45 X 10 Y 45 X 17 Y 45 X -5 Y 45 X -29 Y 44 X -42 Y 45 X -49 Y 45 X -30 Y 45 X -23 Y 45 X -25 Y 44 X -24 Y 45 X -20 Y 45 X -28 Y
 45 X -30 Y 44 X -29 Y 45 X -26 Y 45 X -19 Y 45 X -14 Y 45 X -9 Y 44 X -5 Y 45 X -4 Y 45 X -2 Y 45 X -1 Y 89 X -1 Y s 1 0.4 0.4 c black 3 lw 1 0.4 0.4 c 363 246 m 45 X 1 Y 44 X 2 Y 45 X 12 Y 45 X 40 Y 45 X 65 Y 45 X 45 Y 44 X 26 Y 45 X 26 Y 45 X 38 Y
 45 X 36 Y 44 X 6 Y 45 X 2 Y 45 X 15 Y 45 X 23 Y 45 X 34 Y 44 X 17 Y 45 X 10 Y 45 X 17 Y 45 X -5 Y 45 X -29 Y 44 X -42 Y 45 X -49 Y 45 X -30 Y 45 X -23 Y 45 X -25 Y 44 X -24 Y 45 X -20 Y 45 X -28 Y 45 X -30 Y 44 X -29 Y 45 X -26 Y 45 X -19 Y 45 X -14
 Y 45 X -9 Y 44 X -5 Y 45 X -4 Y 45 X -2 Y 45 X -1 Y 89 X -1 Y f 6 lw black 1 0.4 0.4 c black 363 246 m 45 X 1 Y 44 X 2 Y 45 X 12 Y 45 X 40 Y 45 X 65 Y 45 X 45 Y 44 X 26 Y 45 X 26 Y 45 X 38 Y 45 X 36 Y 44 X 6 Y 45 X 2 Y 45 X 15 Y 45 X 23 Y 45 X 34 Y
 44 X 17 Y 45 X 10 Y 45 X 17 Y 45 X -5 Y 45 X -29 Y 44 X -42 Y 45 X -49 Y 45 X -30 Y 45 X -23 Y 45 X -25 Y 44 X -24 Y 45 X -20 Y 45 X -28 Y 45 X -30 Y 44 X -29 Y 45 X -26 Y 45 X -19 Y 45 X -14 Y 45 X -9 Y 44 X -5 Y 45 X -4 Y 45 X -2 Y 45 X -1 Y 89 X
 -1 Y s 0.999 0.999 0.999 c black 3 lw 0.999 0.999 0.999 c 363 246 m 45 X 1 Y 44 X 2 Y 45 X 12 Y 45 X 40 Y 45 X 64 Y 45 X 45 Y 44 X 25 Y 45 X 25 Y 45 X 39 Y 45 X 35 Y 44 X 5 Y 45 X 2 Y 45 X 14 Y 45 X 22 Y 45 X 32 Y 44 X 16 Y 45 X 7 Y 45 X 12 Y 45 X
 -9 Y 45 X -33 Y 44 X -44 Y 45 X -48 Y 45 X -30 Y 45 X -22 Y 45 X -23 Y 44 X -22 Y 45 X -19 Y 45 X -25 Y 45 X -26 Y 44 X -26 Y 45 X -24 Y 45 X -16 Y 45 X -13 Y 45 X -8 Y 44 X -4 Y 45 X -3 Y 45 X -1 Y 45 X -1 Y 89 X -1 Y f 6 lw black 0.999 0.999 0.999
 c black 363 246 m 45 X 1 Y 44 X 2 Y 45 X 12 Y 45 X 40 Y 45 X 64 Y 45 X 45 Y 44 X 25 Y 45 X 25 Y 45 X 39 Y 45 X 35 Y 44 X 5 Y 45 X 2 Y 45 X 14 Y 45 X 22 Y 45 X 32 Y 44 X 16 Y 45 X 7 Y 45 X 12 Y 45 X -9 Y 45 X -33 Y 44 X -44 Y 45 X -48 Y 45 X -30 Y 45
 X -22 Y 45 X -23 Y 44 X -22 Y 45 X -19 Y 45 X -25 Y 45 X -26 Y 44 X -26 Y 45 X -24 Y 45 X -16 Y 45 X -13 Y 45 X -8 Y 44 X -4 Y 45 X -3 Y 45 X -1 Y 45 X -1 Y 45 X -1 Y 44 X s 1 1 1 c black 363 246 m 45 X 1 Y 44 X 2 Y 45 X 12 Y 45 X 40 Y 45 X 64 Y 45
 X 45 Y 44 X 25 Y 45 X 25 Y 45 X 39 Y 45 X 35 Y 44 X 5 Y 45 X 2 Y 45 X 14 Y 45 X 22 Y 45 X 32 Y 44 X 16 Y 45 X 7 Y 45 X 12 Y 45 X -9 Y 45 X -33 Y 44 X -44 Y 45 X -48 Y 45 X -30 Y 45 X -22 Y 45 X -23 Y 44 X -22 Y 45 X -19 Y 45 X -25 Y 45 X -26 Y 44 X
 -26 Y 45 X -24 Y 45 X -16 Y 45 X -13 Y 45 X -8 Y 44 X -4 Y 45 X -3 Y 45 X -1 Y 45 X -1 Y 45 X -1 Y 44 X s 1 0.6 1 c black 3 lw 1 0.6 1 c 363 246 m 45 X 1 Y 44 X 2 Y 45 X 12 Y 45 X 40 Y 45 X 64 Y 45 X 45 Y 44 X 25 Y 45 X 25 Y 45 X 39 Y 45 X 35 Y 44 X
 5 Y 45 X 2 Y 45 X 14 Y 45 X 22 Y 45 X 32 Y 44 X 16 Y 45 X 7 Y 45 X 12 Y 45 X -9 Y 45 X -33 Y 44 X -44 Y 45 X -48 Y 45 X -30 Y 45 X -22 Y 45 X -23 Y 44 X -22 Y 45 X -19 Y 45 X -25 Y 45 X -26 Y 44 X -26 Y 45 X -24 Y 45 X -16 Y 45 X -13 Y 45 X -8 Y 44
 X -4 Y 45 X -3 Y 45 X -1 Y 45 X -1 Y 89 X -1 Y f 6 lw black 1 0.6 1 c black 363 246 m 45 X 1 Y 44 X 2 Y 45 X 12 Y 45 X 40 Y 45 X 64 Y 45 X 45 Y 44 X 25 Y 45 X 25 Y 45 X 39 Y 45 X 35 Y 44 X 5 Y 45 X 2 Y 45 X 14 Y 45 X 22 Y 45 X 32 Y 44 X 16 Y 45 X 7
 Y 45 X 12 Y 45 X -9 Y 45 X -33 Y 44 X -44 Y 45 X -48 Y 45 X -30 Y 45 X -22 Y 45 X -23 Y 44 X -22 Y 45 X -19 Y 45 X -25 Y 45 X -26 Y 44 X -26 Y 45 X -24 Y 45 X -16 Y 45 X -13 Y 45 X -8 Y 44 X -4 Y 45 X -3 Y 45 X -1 Y 45 X -1 Y 45 X -1 Y 44 X s 0.999
 0.999 0.999 c black 3 lw 0.999 0.999 0.999 c 363 246 m 45 X 1 Y 44 X 2 Y 45 X 12 Y 45 X 40 Y 45 X 64 Y 45 X 45 Y 44 X 25 Y 45 X 25 Y 45 X 38 Y 45 X 33 Y 44 X 3 Y 45 X -2 Y 45 X 8 Y 45 X 17 Y 45 X 26 Y 44 X 12 Y 45 X 5 Y 45 X 6 Y 45 X -11 Y 45 X -38
 Y 44 X -46 Y 45 X -46 Y 45 X -32 Y 45 X -21 Y 45 X -23 Y 44 X -21 Y 45 X -18 Y 45 X -21 Y 45 X -20 Y 44 X -21 Y 45 X -19 Y 45 X -10 Y 45 X -7 Y 45 X -3 Y 44 X -1 Y 45 X -1 Y 135 X -1 Y 44 X f 6 lw black 0.999 0.999 0.999 c black 363 246 m 45 X 1 Y
 44 X 2 Y 45 X 12 Y 45 X 40 Y 45 X 64 Y 45 X 45 Y 44 X 25 Y 45 X 25 Y 45 X 38 Y 45 X 33 Y 44 X 3 Y 45 X -2 Y 45 X 8 Y 45 X 17 Y 45 X 26 Y 44 X 12 Y 45 X 5 Y 45 X 6 Y 45 X -11 Y 45 X -38 Y 44 X -46 Y 45 X -46 Y 45 X -32 Y 45 X -21 Y 45 X -23 Y 44 X
 -21 Y 45 X -18 Y 45 X -21 Y 45 X -20 Y 44 X -21 Y 45 X -19 Y 45 X -10 Y 45 X -7 Y 45 X -3 Y 44 X -1 Y 45 X -1 Y 135 X -1 Y 44 X s 1 1 1 c black 363 246 m 45 X 1 Y 44 X 2 Y 45 X 12 Y 45 X 40 Y 45 X 64 Y 45 X 45 Y 44 X 25 Y 45 X 25 Y 45 X 38 Y 45 X 33
 Y 44 X 3 Y 45 X -2 Y 45 X 8 Y 45 X 17 Y 45 X 26 Y 44 X 12 Y 45 X 5 Y 45 X 6 Y 45 X -11 Y 45 X -38 Y 44 X -46 Y 45 X -46 Y 45 X -32 Y 45 X -21 Y 45 X -23 Y 44 X -21 Y 45 X -18 Y 45 X -21 Y 45 X -20 Y 44 X -21 Y 45 X -19 Y 45 X -10 Y 45 X -7 Y 45 X -3
 Y 44 X -1 Y 45 X -1 Y 135 X -1 Y 44 X s 0.6 0.6 1 c black 3 lw 0.6 0.6 1 c 363 246 m 45 X 1 Y 44 X 2 Y 45 X 12 Y 45 X 40 Y 45 X 64 Y 45 X 45 Y 44 X 25 Y 45 X 25 Y 45 X 38 Y 45 X 33 Y 44 X 3 Y 45 X -2 Y 45 X 8 Y 45 X 17 Y 45 X 26 Y 44 X 12 Y 45 X 5 Y
 45 X 6 Y 45 X -11 Y 45 X -38 Y 44 X -46 Y 45 X -46 Y 45 X -32 Y 45 X -21 Y 45 X -23 Y 44 X -21 Y 45 X -18 Y 45 X -21 Y 45 X -20 Y 44 X -21 Y 45 X -19 Y 45 X -10 Y 45 X -7 Y 45 X -3 Y 44 X -1 Y 45 X -1 Y 135 X -1 Y 44 X f 6 lw black 0.6 0.6 1 c black
 363 246 m 45 X 1 Y 44 X 2 Y 45 X 12 Y 45 X 40 Y 45 X 64 Y 45 X 45 Y 44 X 25 Y 45 X 25 Y 45 X 38 Y 45 X 33 Y 44 X 3 Y 45 X -2 Y 45 X 8 Y 45 X 17 Y 45 X 26 Y 44 X 12 Y 45 X 5 Y 45 X 6 Y 45 X -11 Y 45 X -38 Y 44 X -46 Y 45 X -46 Y 45 X -32 Y 45 X -21 Y
 45 X -23 Y 44 X -21 Y 45 X -18 Y 45 X -21 Y 45 X -20 Y 44 X -21 Y 45 X -19 Y 45 X -10 Y 45 X -7 Y 45 X -3 Y 44 X -1 Y 45 X -1 Y 135 X -1 Y 44 X s 0.999 0.999 0.999 c black 3 lw 0.999 0.999 0.999 c 363 246 m 45 X 1 Y 44 X 2 Y 45 X 12 Y 45 X 40 Y 45 X
 64 Y 45 X 44 Y 44 X 23 Y 45 X 23 Y 45 X 37 Y 45 X 30 Y 89 X -9 Y 45 X 2 Y 45 X 8 Y 45 X 21 Y 44 X 6 Y 45 X 3 Y 45 X 3 Y 45 X -12 Y 45 X -38 Y 44 X -43 Y 45 X -46 Y 45 X -29 Y 45 X -20 Y 45 X -19 Y 44 X -17 Y 45 X -16 Y 45 X -15 Y 45 X -14 Y 44 X -16
 Y 45 X -14 Y 45 X -6 Y 45 X -4 Y 89 X -1 Y 224 X f 6 lw black 0.999 0.999 0.999 c black 363 246 m 45 X 1 Y 44 X 2 Y 45 X 12 Y 45 X 40 Y 45 X 64 Y 45 X 44 Y 44 X 23 Y 45 X 23 Y 45 X 37 Y 45 X 30 Y 89 X -9 Y 45 X 2 Y 45 X 8 Y 45 X 21 Y 44 X 6 Y 45 X 3
 Y 45 X 3 Y 45 X -12 Y 45 X -38 Y 44 X -43 Y 45 X -46 Y 45 X -29 Y 45 X -20 Y 45 X -19 Y 44 X -17 Y 45 X -16 Y 45 X -15 Y 45 X -14 Y 44 X -16 Y 45 X -14 Y 45 X -6 Y 45 X -4 Y 89 X -1 Y 224 X s 1 1 1 c black 363 246 m 45 X 1 Y 44 X 2 Y 45 X 12 Y 45 X
 40 Y 45 X 64 Y 45 X 44 Y 44 X 23 Y 45 X 23 Y 45 X 37 Y 45 X 30 Y 89 X -9 Y 45 X 2 Y 45 X 8 Y 45 X 21 Y 44 X 6 Y 45 X 3 Y 45 X 3 Y 45 X -12 Y 45 X -38 Y 44 X -43 Y 45 X -46 Y 45 X -29 Y 45 X -20 Y 45 X -19 Y 44 X -17 Y 45 X -16 Y 45 X -15 Y 45 X -14
 Y 44 X -16 Y 45 X -14 Y 45 X -6 Y 45 X -4 Y 89 X -1 Y 224 X s 0.6 0.8 0.8 c black 3 lw 0.6 0.8 0.8 c 363 246 m 45 X 1 Y 44 X 2 Y 45 X 12 Y 45 X 40 Y 45 X 64 Y 45 X 44 Y 44 X 23 Y 45 X 23 Y 45 X 37 Y 45 X 30 Y 89 X -9 Y 45 X 2 Y 45 X 8 Y 45 X 21 Y 44
 X 6 Y 45 X 3 Y 45 X 3 Y 45 X -12 Y 45 X -38 Y 44 X -43 Y 45 X -46 Y 45 X -29 Y 45 X -20 Y 45 X -19 Y 44 X -17 Y 45 X -16 Y 45 X -15 Y 45 X -14 Y 44 X -16 Y 45 X -14 Y 45 X -6 Y 45 X -4 Y 89 X -1 Y 224 X f 6 lw black 0.6 0.8 0.8 c black 363 246 m 45
 X 1 Y 44 X 2 Y 45 X 12 Y 45 X 40 Y 45 X 64 Y 45 X 44 Y 44 X 23 Y 45 X 23 Y 45 X 37 Y 45 X 30 Y 89 X -9 Y 45 X 2 Y 45 X 8 Y 45 X 21 Y 44 X 6 Y 45 X 3 Y 45 X 3 Y 45 X -12 Y 45 X -38 Y 44 X -43 Y 45 X -46 Y 45 X -29 Y 45 X -20 Y 45 X -19 Y 44 X -17 Y
 45 X -16 Y 45 X -15 Y 45 X -14 Y 44 X -16 Y 45 X -14 Y 45 X -6 Y 45 X -4 Y 89 X -1 Y 224 X s 0 0.4 1 c 1 1 1 c black 0 0.4 1 c 363 246 m 269 X 1 Y 134 X -1 Y 45 X 1 Y 44 X 2 Y 45 X 2 Y 45 X 3 Y 45 X 4 Y 45 X 2 Y 44 X 4 Y 45 X 12 Y 45 X 13 Y 45 X 23
 Y 45 X 30 Y 44 X 27 Y 45 X 18 Y 45 X 49 Y 45 X 64 Y 45 X 73 Y 44 X 107 Y 45 X 100 Y 45 X 129 Y 45 X 121 Y 44 X 82 Y 45 X 70 Y 45 X -32 Y 45 X -110 Y 45 X -68 Y 44 X -97 Y 45 X -146 Y 45 X -182 Y 45 X -170 Y 45 X -104 Y 44 X -27 Y s black 1 1 1 c
 black 363 246 m 9 X s 398 246 m 10 X s 3 lw /w 31 def /w2 {w 2 div} def /w3 {w 3 div} def 385 246 m20 6 lw 408 247 m 9 X s 443 247 m 9 X s 3 lw 430 247 m20 6 lw 452 249 m 10 X s 488 249 m 9 X s 3 lw 475 249 m20 6 lw 497 263 m 10 X s 533 263 m 9 X s
 3 lw 520 263 m20 6 lw 542 307 m 9 X s 577 307 m 10 X s 3 lw 564 307 m20 6 lw 587 382 m 9 X s 622 382 m 10 X s 3 lw 609 382 m20 6 lw 632 434 m 9 X s 667 434 m 9 X s 3 lw 654 434 m20 6 lw 676 466 m 10 X s 712 466 m 9 X s 3 lw 699 466 m20 6 lw 721 511
 m 10 X s 757 511 m 9 X s 3 lw 744 511 m20 6 lw 766 560 m 9 X s 801 560 m 10 X s 3 lw 788 560 m20 6 lw 811 609 m 9 X s 846 609 m 9 X s 3 lw 833 609 m20 6 lw 855 630 m 10 X s 891 630 m 9 X s 3 lw 878 630 m20 6 lw 900 647 m 10 X s 936 647 m 9 X s 3 lw
 923 647 m20 6 lw 945 676 m 9 X s 980 676 m 10 X s 3 lw 967 676 m20 6 lw 990 717 m 9 X s 1025 717 m 10 X s 3 lw 1012 717 m20 6 lw 1035 767 m 9 X s 1070 767 m 9 X s 3 lw 1057 767 m20 6 lw 1079 805 m 10 X s 1115 805 m 9 X s 3 lw 1102 805 m20 6 lw 1124
 825 m 10 X s 1160 825 m 9 X s 3 lw 1147 825 m20 6 lw 1169 845 m 9 X s 1204 845 m 10 X s 3 lw 1191 845 m20 6 lw 1214 834 m 9 X s 1249 834 m 10 X s 3 lw 1236 834 m20 6 lw 1259 787 m 9 X s 1294 787 m 9 X s 3 lw 1281 787 m20 6 lw 1303 720 m 10 X s 1339
 720 m 9 X s 3 lw 1326 720 m20 6 lw 1348 648 m 10 X s 1384 648 m 9 X s 3 lw 1371 648 m20 6 lw 1393 598 m 9 X s 1428 598 m 10 X s 3 lw 1415 598 m20 6 lw 1438 563 m 9 X s 1473 563 m 10 X s 3 lw 1460 563 m20 6 lw 1483 529 m 9 X s 1518 529 m 9 X s 3 lw
 1505 529 m20 6 lw 1527 498 m 10 X s 1563 498 m 9 X s 3 lw 1550 498 m20 6 lw 1572 461 m 9 X s 1607 461 m 10 X s 3 lw 1594 461 m20 6 lw 1617 427 m 9 X s 1652 427 m 10 X s 3 lw 1639 427 m20 6 lw 1662 387 m 9 X s 1697 387 m 9 X s 3 lw 1684 387 m20 6 lw
 1706 348 m 10 X s 1742 348 m 9 X s 3 lw 1729 348 m20 6 lw 1751 318 m 10 X s 1787 318 m 9 X s 3 lw 1774 318 m20 6 lw 1796 293 m 9 X s 1831 293 m 10 X s 3 lw 1818 293 m20 6 lw 1841 275 m 9 X s 1876 275 m 10 X s 3 lw 1863 275 m20 6 lw 1886 264 m 9 X s
 1921 264 m 9 X s 3 lw 1908 264 m20 6 lw 1930 256 m 10 X s 1966 256 m 9 X s 3 lw 1953 256 m20 6 lw 1975 252 m 10 X s 2011 252 m 9 X s 3 lw 1998 252 m20 6 lw 2020 249 m 9 X s 2055 249 m 10 X s 3 lw 2042 249 m20 6 lw 2065 247 m 9 X s 2100 247 m 10 X s
 3 lw 2087 247 m20 6 lw 2110 246 m 9 X s 2145 246 m 9 X s 3 lw 2132 246 m20 6 lw 0 0.2 0.8 c 1 1 1 c 0 0.2 0.8 c 900 250 m 10 X s 936 250 m 9 X s 3 lw 923 250 m20 6 lw 945 251 m 9 X s 980 251 m 10 X s 3 lw 967 251 m20 6 lw 990 252 m 9 X s 1025 252 m
 10 X s 3 lw 1012 252 m20 6 lw 1035 258 m 9 X s 1070 258 m 9 X s 3 lw 1057 258 m20 6 lw 1079 266 m 10 X s 1115 266 m 9 X s 3 lw 1102 266 m20 6 lw 1124 270 m 10 X s 1160 270 m 9 X s 3 lw 1147 270 m20 6 lw 1169 284 m 9 X s 1204 284 m 10 X s 3 lw 1191
 284 m20 6 lw 1214 305 m 9 X s 1249 305 m 10 X s 3 lw 1236 305 m20 6 lw 1259 350 m 9 X s 1294 350 m 9 X s 3 lw 1281 350 m20 6 lw 1303 358 m 10 X s 1339 358 m 9 X s 3 lw 1326 358 m20 6 lw 1348 398 m 10 X s 1384 398 m 9 X s 3 lw 1371 398 m20 6 lw 1393
 430 m 9 X s 1428 430 m 10 X s 3 lw 1415 430 m20 6 lw 1438 495 m 9 X s 1473 495 m 10 X s 3 lw 1460 495 m20 6 lw 1505 559 m 1 Y s 1505 586 m 1 Y s 1483 573 m 9 X s 1518 573 m 9 X s 3 lw 1505 573 m20 6 lw 1550 639 m 3 Y s 1550 668 m 3 Y s 1527 655 m 10
 X s 1563 655 m 9 X s 3 lw 1550 655 m20 6 lw 1594 753 m 5 Y s 1594 784 m 5 Y s 1572 771 m 9 X s 1607 771 m 10 X s 3 lw 1594 771 m20 6 lw 1639 913 m 8 Y s 1639 947 m 8 Y s 1617 934 m 9 X s 1652 934 m 10 X s 3 lw 1639 934 m20 6 lw 1684 1033 m 9 Y s
 1684 1068 m 10 Y s 1662 1055 m 9 X s 1697 1055 m 9 X s 3 lw 1684 1055 m20 6 lw 1729 1106 m 11 Y s 1729 1143 m 10 Y s 1706 1130 m 10 X s 1742 1130 m 9 X s 3 lw 1729 1130 m20 6 lw 1774 1162 m 11 Y s 1774 1199 m 11 Y s 1751 1186 m 10 X s 1787 1186 m 9
 X s 3 lw 1774 1186 m20 6 lw 1818 1100 m 11 Y s 1818 1137 m 10 Y s 1796 1124 m 9 X s 1831 1124 m 10 X s 3 lw 1818 1124 m20 6 lw 1863 1027 m 10 Y s 1863 1063 m 9 Y s 1841 1050 m 9 X s 1876 1050 m 10 X s 3 lw 1863 1050 m20 6 lw 1908 961 m 9 Y s 1908
 996 m 8 Y s 1886 983 m 9 X s 1921 983 m 9 X s 3 lw 1908 983 m20 6 lw 1953 870 m 7 Y s 1953 903 m 7 Y s 1930 890 m 10 X s 1966 890 m 9 X s 3 lw 1953 890 m20 6 lw 1998 711 m 4 Y s 1998 741 m 5 Y s 1975 728 m 10 X s 2011 728 m 9 X s 3 lw 1998 728 m20 6
 lw 2042 520 m 1 Y s 2042 547 m s 2020 534 m 9 X s 2055 534 m 10 X s 3 lw 2042 534 m20 6 lw 2065 380 m 9 X s 2100 380 m 10 X s 3 lw 2087 380 m20 6 lw 2110 274 m 9 X s 2145 274 m 9 X s 3 lw 2132 274 m20 6 lw black
 gsave  2268 1540 0 0 C 1098.12 1263.81 t 0 r /Helvetica findfont 71.4753 sf 0 0 m (=7TeV) show NC gr 
 gsave  2268 1540 0 0 C 961.668 1244.32 t 0 r /Helvetica findfont 48.7332 sf 0 0 m (proton) show NC gr 
 gsave  2268 1540 0 0 C 906.437 1263.81 t 0 r /Helvetica-Oblique findfont 71.4753 sf 0 0 m (E) show NC gr  3 lw /w 26 def /w2 {w 2 div} def /w3 {w 3 div} def 989 1124 m20 6 lw
 gsave  2268 1540 0 0 C 1042.89 1104.62 t 0 r /Helvetica findfont 71.4753 sf 0 0 m (Training sample) show NC gr  12 lw 930 1032 m 90 X s
 gsave  2268 1540 0 0 C 1042.89 1010.4 t 0 r /Helvetica findfont 71.4753 sf 0 0 m (Test sample) show NC gr 
 gsave  2268 1540 0 0 C 610.789 1273.56 t 0 r /Helvetica findfont 71.4753 sf 0 0 m (Signal) show NC gr  3 lw 0 0.4 1 c 90 47 481 1270 bf black
 gsave  2268 1540 0 0 C 701.758 1179.34 t 0 r /Symbol findfont 71.4753 sf 0 0 m ita (n) show gr NC gr 
 gsave  2268 1540 0 0 C 610.789 1179.34 t 0 r /Helvetica-Oblique findfont 71.4753 sf 0 0 m (Wj) show NC gr  1 0.8 0.2 c 90 46 481 1178 bf black
 gsave  2268 1540 0 0 C 610.789 1088.37 t 0 r /Helvetica-Oblique findfont 71.4753 sf 0 0 m (Zje) show NC gr  1 0.4 0.4 c 90 46 481 1086 bf black
 gsave  2268 1540 0 0 C 718.002 994.157 t 0 r /Helvetica-Oblique findfont 71.4753 sf 0 0 m (je) show NC gr 
 gsave  2268 1540 0 0 C 688.762 1029.89 t 0 r /Helvetica-Oblique findfont 48.7332 sf 0 0 m (+) show NC gr 
 gsave  2268 1540 0 0 C 610.789 994.157 t 0 r /Helvetica-Oblique findfont 71.4753 sf 0 0 m (W) show NC gr  1 0.6 1 c 90 46 481 993 bf black
 gsave  2268 1540 0 0 C 708.255 903.188 t 0 r /Helvetica-Oblique findfont 71.4753 sf 0 0 m (je) show NC gr 
 gsave  2268 1540 0 0 C 688.762 948.672 t 0 r /Helvetica-Oblique findfont 48.7332 sf 0 0 m (\255) show NC gr 
 gsave  2268 1540 0 0 C 610.789 903.188 t 0 r /Helvetica-Oblique findfont 71.4753 sf 0 0 m (W) show NC gr  0.6 0.6 1 c 90 46 481 901 bf black
 gsave  2268 1540 0 0 C 610.789 802.473 t 0 r /Helvetica findfont 71.4753 sf 0 0 m (Other) show NC gr  0.6 0.8 0.8 c 90 47 481 808 bf
 gr  gr showpage
end
%%EOF
